8853 438296 449
201942 759976 509
695298 509695 509
729625 333774 509
685935 913024 525
940542 245064 525
887585 5224 525
120071 803607 509
51815 804293 509
92573 290895 443
483522 853630 525
61361 577376 470
516966 694848 509
122664 846441 525
402320 285348 441
584694 324202 470
719935 651062 504
504385 109900 449
47998 848918 525
4407 698571 509
163976 295566 443
57159 468515 449
416792 271189 449
770756 174284 509
338281 706996 509
448500 613695 470
575696 469505 470
22506 688144 509
839616 598857 525
123145 638557 509
497527 141491 449
874557 190520 525
181406 852483 525
371056 167702 443
79556 545475 470
909610 593096 525
886450 292861 525
448406 982537 525
428679 384051 449
430721 144927 449
252667 27223 443
693063 480077 509
587845 112566 470
978191 258991 525
144728 61360 375
75297 785152 509
896848 362887 525
272160 55565 443
60304 324706 443
231416 37162 443
155878 196675 383
76729 637131 509
627005 518737 509
370292 822373 509
762628 907140 525
265602 702263 509
894331 793673 525
593515 890703 525
702781 688097 442
849456 966833 507
160857 526198 470
924928 400622 525
121709 51096 354
693331 117588 509
674122 717107 504
862673 214069 525
748026 277286 509
673649 784822 504
162085 859987 525
677910 606978 509
975969 941757 458
807262 69098 509
427711 916804 525
407489 735241 509
272602 724232 509
844349 884354 432
468043 570437 470
999601 261594 525
289112 366066 441
390175 372471 436
576390 554621 421
891615 409886 525
933235 904607 476
175110 533896 470
111992 765558 509
684736 924650 525
109115 822078 509
380303 22904 443
372445 957246 525
672278 705343 504
758141 216890 509
549466 704287 509
91311 506637 449
754115 619718 509
246582 486199 449
617276 616693 310
560262 265718 470
311188 915242 525
786643 430437 509
721304 866133 525
545160 747584 509
516449 648155 509
74351 372637 443
374715 363476 392
908967 704364 525
887294 627892 525
844090 179931 525
173021 898426 525
965272 992327 458
658830 953251 525
29919 559045 470
798188 30842 509
162266 733306 509
12805 279054 443
46377 936154 525
57636 398553 443
267520 55551 443
519534 114012 470
692838 558465 509
610683 465302 470
362722 925386 525
916844 330364 525
780529 17461 509
74494 410294 449
188638 668080 509
263509 233106 407
154870 277973 443
780973 549057 509
680368 855615 525
423218 866027 525
208936 478581 449
268148 748054 509
528289 402860 470
503644 616371 470
476413 521631 470
374140 161892 443
632786 621515 509
902625 842274 445
806429 434644 509
492869 890091 525
631923 928908 525
620263 200044 470
180029 611098 470
649400 338424 509
196559 76270 383
36475 872103 525
767842 979003 525
777690 343603 509
265238 17337 443
59223 917033 525
997101 913077 507
418639 603048 470
395309 559069 470
52531 554209 470
259527 659382 509
507514 271356 449
203512 115908 383
523072 536654 408
840406 897463 445
127363 795061 509
883110 710248 525
842820 16612 525
945563 175319 525
75 989220 525
274481 366811 441
953038 199218 525
262266 395555 441
319586 982237 525
248679 393281 441
424660 151887 449
507715 923890 525
972372 808468 525
816506 193250 509
568210 257566 470
526572 574939 452
732866 320214 509
190955 717225 509
105511 168352 383
144509 164315 383
709854 147620 509
183202 161916 365
888941 203186 525
733268 939157 525
356966 992460 525
711818 163995 509
723206 148806 509
696324 746551 504
756414 184570 509
769048 587832 509
191972 252644 443
561397 26452 470
811536 815016 375
384638 465851 449
494375 725656 509
820187 947387 525
430392 397078 449
107952 715355 509
536772 629766 509
973990 979482 383
735286 719664 411
805569 816197 406
442922 323668 449
617109 859590 525
536803 926225 525
179047 696200 509
577474 190824 470
515768 933969 525
851041 17929 525
516532 873667 525
916628 366451 525
766682 613586 509
497206 242528 449
705128 968092 525
173484 884704 525
116539 288620 443
