229220 32931
261677 293552
965078 390942
660681 957048
251157 964790
519651 727935
533687 34092
301867 264887
474078 47532
583829 506704
571816 664306
357040 585067
80497 561171
404489 950827
804614 957323
469544 445690
998602 352779
827213 156053
323463 816690
561267 236110
489098 786789
654206 910410
375741 400538
547483 498755
512910 523759
71459 638142
517023 292319
851495 110607
331286 267178
473103 682030
307096 182729
533777 355434
148408 84046
377891 78607
843229 673290
306232 504555
385498 318072
442666 666428
564712 677405
947480 653464
317123 819721
909030 464792
86647 950786
251058 33494
690643 538532
206104 378951
853426 237613
162359 196190
546525 500199
321212 550707
431108 455326
716044 912277
64192 707347
661220 991523
88745 391704
706897 585180
444778 363631
933002 192405
484144 956064
589479 340554
881949 212973
31467 719310
588065 405399
611276 167773
909194 512462
370845 18816
935130 113336
54669 130528
217280 399322
102 463620
398055 616711
866751 200527
711103 141785
683798 519879
119879 155724
948233 512574
191084 509918
949224 646369
299563 722638
808141 509694
645990 278685
654271 665845
778978 297558
197128 735313
834412 574572
805805 169153
175956 84490
402524 942837
522082 210935
374555 99199
459443 267537
748866 979626
616062 314725
82315 360631
340472 548069
377147 245761
754307 708570
604120 151126
166072 960600
208120 648507
249798 169332
571518 559452
543971 52293
237291 44609
964968 511845
119799 460894
891287 938155
832440 105658
561428 631874
650366 644860
534132 238654
612373 134408
879745 307915
215938 621174
176883 985696
589912 297358
374773 848870
961054 85503
701615 417045
651715 254632
713024 560221
649806 464501
83539 752021
227694 370111
989984 491711
341998 41914
544078 327049
602468 393512
798390 922244
874968 69350
202283 8165
870887 891541
950896 797526
394121 546366
804929 163025
861636 73051
946646 863701
239364 933579
194554 682472
507234 545399
783374 215389
245184 194090
789133 637999
658613 680736
801335 931655
187846 249034
869466 520932
648044 344388
516264 556402
956685 779415
599867 240019
510647 741872
282842 556333
454535 771793
11024 486723
530417 419328
935197 566818
823347 254434
140284 498400
565111 943051
852834 78646
61772 192824
798483 557693
823552 495944
890803 176461
210313 638820
828951 781007
900499 187242
282636 347735
746614 429126
989182 598914
823195 932762
627175 810488
617104 685246
493207 560471
181880 247679
732197 301459
752530 29490
43614 110013
568800 660523
576190 553725
23537 636111
81549 889608
42399 480889
625531 186128
34401 237494
275792 703806
271047 728844
653022 378371
160258 526325
68630 209160
82762 456324
898784 407484
554703 335622
576498 281733
165172 981417
72278 583638
776051 509980
477350 937254
139230 131374
711323 490963
893494 526001
702081 366125
23808 514809
220772 875678
813434 571158
177221 437774
143768 993389
864310 445977
162253 413761
902776 354131
846545 694953
252482 332578
820856 74382
923810 577832
142566 260327
733175 30226
533526 185463
984097 646658
512042 405148
718131 455287
14308 943738
162616 446542
177493 594653
701153 170463
198704 392995
214213 846281
835318 451130
18386 571919
154216 440428
406998 386262
145529 605984
761261 521050
468498 222290
877679 501679
268801 407345
429406 375932
681894 893080
247617 416596
497700 91316
950186 619381
