49519 659722
336718 495076
64750 299558
966511 534945
940197 507529
985084 348839
806052 245362
352100 94244
786775 817541
957328 309887
760274 383325
783045 230782
363367 308535
677488 334032
615818 892141
653562 916674
430691 299721
500688 459727
404148 703625
182934 86215
81622 775107
519320 371200
196021 883665
515402 89080
125669 237983
62039 301320
858977 437748
118261 889333
545126 59016
701981 839333
672527 324937
208393 876126
663430 445383
514481 107570
964194 926756
956429 350358
662020 811892
193847 480570
677728 493470
144800 726297
973591 490595
990349 1127
916069 358587
883434 4723
325076 500328
613536 403604
860526 651437
543361 269169
392304 746311
161978 122586
511751 256475
43338 289275
92995 759479
874962 5780
82695 878787
199756 68663
820590 356579
332587 453643
196419 705696
76029 614866
254761 475273
572233 332412
922272 565339
164386 951593
682759 296559
269955 434123
982649 563503
725383 590427
613356 907224
139479 851193
694345 597662
324057 839921
213033 52859
905053 723078
728425 656195
656117 422164
679358 662994
914404 554223
966923 330728
7366 317602
223564 3414
985113 39237
316963 563541
886302 283692
445385 523969
200568 342422
492341 839865
366937 345110
334403 144605
114762 548452
357020 516560
581579 603739
210451 343830
890894 323773
307759 667664
847862 397282
442124 524552
103224 715817
8787 870152
561242 408225
767216 388043
742783 509547
708598 398106
648568 836091
616431 683409
111697 663662
214488 134868
344716 472388
573223 133666
309871 806441
234922 632764
676227 797438
694106 599991
899481 822490
997850 167318
149617 193190
125152 731343
221764 813135
765596 674265
350832 730390
51551 180263
755924 800515
921553 87313
691862 966989
430581 799161
962486 752099
925345 436510
953602 895597
903249 106175
693239 563001
390209 785256
465935 78099
336705 835425
195518 295689
940539 559824
929092 272427
117467 742509
763454 715707
694028 827721
578738 636958
769799 728767
918592 548336
556199 192587
730914 657381
522655 664191
260031 594635
785177 780898
92052 702590
260779 1052
836676 835275
119986 620330
404310 477674
56872 607337
333110 354163
875090 359327
554102 469832
144937 621527
730610 540175
713302 94791
329039 354924
185887 478679
410292 125497
905384 617146
987579 332988
997704 132347
149314 802425
388721 709317
871471 134454
875403 910741
40409 649299
90187 257392
614573 271747
191332 482733
436146 107029
958551 316949
516938 545250
769448 458419
508401 656897
179988 430386
970348 626502
264775 625334
947061 20804
684295 199939
975793 997452
886279 701811
396916 422863
720242 960766
823271 640335
584433 954240
350077 406495
642126 289365
447273 361798
181055 858527
573244 748770
719747 682589
774275 772075
726111 97577
203167 356893
978188 4793
330175 954248
14693 370972
838097 867947
120560 976315
353805 194192
963401 205914
546775 141578
75488 772686
485763 590061
875748 395056
779214 202702
648398 765095
522310 158785
471736 446824
653268 533684
724345 416178
872102 917932
987951 459921
696297 854072
982835 456659
795584 779196
244822 318647
835738 554322
645283 485571
264484 291435
761062 688798
106196 216427
427816 152392
394282 130003
41002 988522
884614 485541
904524 42999
909454 184664
217409 147694
280914 173572
405988 169491
455314 273116
603723 480497
31834 496715
349371 56870
697305 161653
599489 646754
319856 280637
473383 429284
357356 878515
39455 136485
8298 780429
30367 335443
905454 187092
230972 379931
837703 71021
388771 629987
135009 606615
493800 501131
558663 568634
607572 143075
461444 304429
630162 792752
672725 997799
151909 344288
997485 16417
757395 582952
965521 206672
678898 395132
63593 403356
377921 581487
412856 108783
511240 506297
381382 668906
664543 327642
