75895 364215
76609 406457
626104 286223
103994 769294
239159 149542
231950 633955
493486 794595
695271 487151
717560 547691
706195 37587
943826 754202
965820 892163
497480 975405
555277 360748
170498 357356
647826 194299
366402 353717
380681 790583
539391 542990
428447 876598
830854 601447
440395 924427
642147 591378
488718 574655
214371 621425
251610 516961
59091 151441
618992 51517
858367 327005
394442 652606
699487 344711
48991 745854
854391 405785
636227 170773
232425 75817
749043 588814
341846 631867
292921 519882
818732 657186
418652 816247
892357 74440
190670 113682
307275 997301
109400 7627
416794 542073
192156 295520
92031 484022
35417 747727
588267 73907
554788 405399
91659 843196
315534 300532
593112 855031
310636 360452
925668 658209
840771 51596
326291 30794
848493 918385
705181 812354
633447 125610
653058 70027
806697 704328
494663 524199
738626 571149
286244 423028
920865 280619
10428 258020
92912 792278
47414 253185
825340 832555
897996 483976
377476 836212
531554 378486
578016 662134
351754 678402
25272 602379
915397 105938
876589 975079
849270 887511
2964 457550
562252 418203
341767 284711
475691 304995
775993 915362
761670 247649
99547 136682
830767 661734
82216 49987
133522 84322
384945 386811
723722 205230
697020 465825
663568 340761
728680 787906
625751 211603
237133 303895
457888 109235
668153 123743
178018 645015
547456 716602
5445 904537
452230 558716
680876 963679
338890 580687
513852 545718
563584 508887
626551 667171
937787 151690
171249 446832
29339 524673
828960 93647
434772 203536
131000 913534
774854 601197
854132 971113
925881 920101
238192 626087
810568 52543
328225 478376
580204 159264
709832 245000
331451 455046
270905 248526
604030 780084
769351 438423
989361 728146
718933 774673
490865 298228
537511 348664
360377 339937
310149 862686
558102 645758
630268 194150
333959 140685
141662 111977
111068 993858
440041 351732
647093 292123
84537 930388
796672 524996
744084 741017
56609 889516
484548 775032
541744 825409
572031 24961
526614 146072
704246 85488
866371 514400
965689 497720
261663 90632
395600 362970
723735 540683
592747 323520
192926 387507
275261 993434
632786 543638
704321 311259
875579 908083
20398 77303
192078 642443
733033 228378
905699 320582
826211 409532
354866 869195
164650 655239
89672 824255
997788 265412
251479 853639
282534 831486
866544 700969
413074 148474
714650 89925
871195 643893
862512 392854
631703 665082
548409 177970
793532 657387
728216 813992
470737 687731
484294 326230
927356 606703
887349 752932
335863 121887
565862 709959
482134 411562
684581 561911
399218 442510
704162 129964
634179 349913
102519 435068
581203 207366
699295 81692
82059 58879
459594 323820
383584 783247
569285 863372
445829 714605
5565 98075
757747 827040
467246 612666
480766 89244
397219 2530
875763 235727
945435 342927
178555 917985
44073 42088
476344 150554
449192 202596
479348 606846
40090 299856
447069 540020
181122 559388
134249 262327
818238 947440
433133 743093
626904 291265
177436 708671
257042 639965
828337 447313
516582 108452
456668 693368
621889 163759
333776 723198
183142 376322
159710 774657
483848 91476
714468 507209
474420 508371
180406 392041
867646 682544
193726 863268
815252 161306
965972 376419
872696 526003
320112 377165
873763 509078
825690 315596
282457 708443
304400 68288
537377 716314
549085 400617
187885 574438
