208940 600005 470
539613 442621 470
511730 757039 509
715800 174246 509
576835 915116 525
519721 251348 470
294762 680520 509
573861 108413 470
282624 425598 449
585934 763110 509
905993 330560 525
189312 404444 443
394591 683742 509
859457 954803 507
200555 399810 443
584430 14122 470
5112 30938 308
143039 717799 509
946165 62676 525
21993 752115 509
369383 302892 441
863973 56227 525
358696 114183 443
898066 618297 525
804613 550909 509
975701 591293 525
712139 72354 509
193032 992991 525
149029 424682 449
102933 818195 509
303695 543309 470
103331 355669 443
735661 470683 509
931935 960110 507
717369 273901 509
536022 963411 525
530944 447085 470
401184 149312 443
812667 625319 509
841219 310040 525
835365 60558 509
755235 220491 509
272139 603119 470
741442 858417 525
219753 393921 443
598804 540491 452
882899 222060 525
563693 985435 525
683996 985357 525
107187 536810 470
622800 954935 525
698539 29418 509
720242 59020 509
133853 808652 509
848420 464896 525
692064 634879 442
518498 888146 525
100 187251 383
946605 906983 507
709970 30459 509
464838 471852 413
487690 835513 509
821756 584317 509
24430 849526 525
391721 797220 509
892858 851714 445
153216 983117 525
288724 763182 509
163012 488604 449
546409 784185 509
256901 297083 407
288662 181504 443
96843 687704 509
296171 659705 509
362981 382584 423
767829 773100 468
854938 982743 507
63887 906671 525
215799 647257 509
8815 990482 525
326449 883579 525
452509 247217 449
464290 128503 449
625589 16681 470
960119 568337 525
369352 697692 509
763059 702162 504
486191 838158 525
798659 652796 504
856832 113280 525
202903 6396 383
464349 322258 449
333783 395405 441
281158 693709 509
510097 919858 525
524513 801388 509
819052 301903 509
946380 507068 525
912770 866100 476
296768 421142 449
1066 118969 354
32837 88314 351
282799 182448 443
988671 393990 525
302496 465971 449
133113 541262 470
944974 109536 525
201569 377646 443
168587 185110 365
938474 870541 476
894365 728032 525
376106 541321 470
503983 664157 509
132157 723240 509
894222 424526 525
783747 262363 509
749909 761768 424
635176 213920 509
256352 661151 509
191444 120619 383
317598 251467 407
768684 957338 525
527521 519306 408
2923 775753 509
183006 530030 470
944726 543487 525
589081 893869 525
785166 702523 504
503226 439909 444
250336 288997 407
921478 39579 525
918846 387882 525
335818 685024 509
936741 287831 525
44569 2493 324
26192 220591 386
971178 684386 525
558817 295972 470
783572 603908 509
342031 216866 443
29866 892597 525
627243 956342 525
708004 17598 509
644463 498034 509
594640 419915 470
287664 89552 443
273580 892309 525
139649 383758 443
20410 919738 525
289080 465096 449
32751 727090 509
906067 14019 525
184697 901216 525
887358 60307 525
210717 29258 383
658189 929913 525
218115 637676 509
712995 102890 509
448348 778635 509
199879 375928 443
447640 826914 509
368216 261192 441
423431 915133 525
566109 23425 470
600438 821929 509
560169 833413 509
493475 341531 449
68032 689487 509
569482 864437 525
624570 984035 525
69665 660886 509
378087 573804 470
530692 81278 470
148878 200496 383
739342 165856 509
42095 379747 443
65089 68791 312
912395 76083 525
88060 126144 354
642306 658921 429
818168 548144 509
246728 15218 443
749233 604858 509
319528 984943 525
445241 398363 449
541986 557185 452
829920 135949 509
851398 650197 525
384909 953674 525
462868 838241 525
11027 829179 509
393869 747046 509
33368 200719 383
582510 773417 509
688041 564934 509
229347 312122 443
276098 149956 443
345848 67384 443
960380 266851 525
148972 637595 509
739004 595354 509
477094 819966 509
235827 352082 441
517345 133002 470
157608 415010 449
350806 232274 441
933354 626430 525
777367 429689 509
44124 99561 351
89193 779551 509
498253 186982 449
530134 778139 509
955147 654912 525
210245 478212 449
843426 462304 525
403169 566715 470
507635 221370 449
258499 381812 441
471720 628026 509
956359 40656 525
731471 613775 509
159446 564744 470
641187 152008 509
92401 984165 525
192576 347664 443
967756 494748 525
441780 286309 449
428571 126474 449
799345 194384 509
733315 346519 509
979258 513194 525
52594 415353 449
948724 751835 525
563178 850301 525
116855 641551 509
559326 591012 434
928264 668040 525
962989 29926 525
341209 857409 525
475734 218647 449
86344 727714 509
