1 1
2 2
3 3
4 4
5 5
6 6
7 7
8 8
9 9
10 10
1 5
1 6
6 10
1 10
5 8
5 9
10177 649236
847490 262607
372263 580509
98091 803760
477000 430426
491711 702414
741630 146233
258360 195700
604682 225514
785342 877023
355822 743493
229639 163914
965643 953365
74689 499360
560341 728738
518705 600323
912433 729515
827194 807597
426669 181107
251172 193233
118844 662124
822622 779831
699420 676362
206082 420546
691658 847699
551981 622882
654355 253685
898672 170571
128325 167470
455117 493640
657091 467143
179693 525401
864311 944987
383211 377806
240257 672013
214017 63762
996777 57278
120586 412243
444595 321069
953515 22844
633036 842825
370278 741239
539009 149915
667971 555613
58475 337540
191800 371457
947031 382867
245700 243804
391967 592
289017 549627
618210 29722
170087 998125
837474 836987
759594 783466
24370 900379
187347 85847
154852 944405
509347 561752
303613 58400
485602 774229
729917 27269
878532 527708
658885 981618
786767 823696
465551 356505
505438 539178
221985 444005
866842 459559
813517 411691
970504 352253
658599 636593
66689 263231
758382 17777
866271 850848
343902 744771
591589 614706
750306 266630
332612 927107
892441 366325
52653 127075
547860 845313
644948 321008
865345 862744
784893 766099
15539 678903
730644 15672
14745 217144
365771 767402
933033 604273
241250 630803
260472 49351
815225 467799
51937 307691
999728 795552
956309 164772
277714 887603
222739 452129
599170 960253
851427 288080
105288 399651
653841 375029
638435 449132
548853 579412
21007 586812
49838 605413
42078 354852
249535 732822
635532 435839
150935 767790
611926 702870
486695 699891
939572 289711
899147 924773
380046 898655
302310 312569
700868 824511
176597 942770
655465 660072
698389 550479
309514 649000
515463 4361
642079 480025
9871 876812
847643 737866
253635 678268
396549 803212
932571 721863
113184 25652
61818 407829
773984 686830
300626 773
556264 105762
771778 794282
606222 350503
579840 558067
701304 694646
724976 471753
299194 337351
637961 391422
550477 245960
664168 610414
150552 712297
899804 154896
535707 283057
411127 394042
18253 548983
313799 816850
884953 453461
835753 420876
556053 196422
862888 310201
653128 663713
891428 832288
379935 978389
546949 325669
122483 104199
319220 943711
127725 160307
653035 329887
995625 523457
859301 938378
359300 232465
133432 975950
815 967816
232159 587338
277611 994989
965163 959908
661112 571233
467939 434746
722700 211434
883893 98316
771684 30943
569028 512706
118363 329506
365988 628857
459675 689061
247539 470692
535915 918404
66258 911116
637980 859103
313650 740991
624104 427298
729617 164958
975349 232073
525240 385552
438216 363961
344789 90148
839554 64605
293344 465872
961487 109304
594096 760717
533981 109005
841958 998473
758063 132562
873069 617136
372193 943974
319778 950010
71245 973522
375093 597705
824237 795111
842328 40037
427534 542247
583382 380734
546833 960922
656737 471311
532794 774298
408489 912958
346413 537016
271289 685866
193845 718802
527826 889073
460193 47105
176015 980219
993020 828026
649207 350622
819880 113583
686454 251802
824639 750615
238956 955091
410777 524493
168367 313537
627261 284144
845603 801337
794739 922961
506152 809703
791297 78430
530989 480409
722578 272232
40397 3402
986054 804970
635937 856523
787900 153267
574008 526795
557727 779877
272165 866249
966081 328139
223995 584543
432731 968045
927846 795839
947176 201266
895990 520531
748458 391195
876341 59436
706842 29626
757902 318881
