690610 965988 525
820386 70493 509
226271 959710 525
775444 849127 525
103764 240045 443
699145 676267 442
69190 504093 449
462400 516690 470
901194 215333 525
522749 977372 525
513148 165094 470
77203 123845 354
20693 905687 525
305359 112515 443
462359 191876 449
200280 182540 360
812522 435583 509
423271 469431 444
561273 813091 509
66190 772445 509
492642 816622 509
833284 211318 509
56127 843514 525
450399 196857 449
46572 826173 509
89315 585671 470
755874 102346 509
734740 894987 525
364400 178327 443
93961 575450 470
350517 250604 441
446925 24836 449
247486 582849 470
497537 212543 449
654243 164650 509
105622 242596 443
508963 335475 449
105088 826575 509
743452 392632 509
853523 530600 525
710227 850331 525
503367 884217 525
418079 949633 525
546935 635158 509
769041 656545 504
617464 586708 447
918716 420965 525
899962 153360 525
290320 819729 509
939484 319078 525
129617 96214 354
118430 241757 443
449671 646412 509
148613 609353 470
174313 680395 509
795109 123798 509
642925 8392 509
188450 139324 383
107253 650466 509
669548 575817 509
32513 644370 509
812992 485375 509
253284 678193 509
674684 449041 509
729657 49035 509
60848 623748 470
538674 16564 470
418163 425778 418
943610 472082 525
629628 990690 525
788900 643838 504
183539 953727 525
263118 140238 443
536192 426120 470
653591 538181 509
482443 803991 509
66372 928380 525
579992 749805 509
165579 35347 383
327813 982439 525
321891 52384 443
909445 52881 525
111869 211416 383
768352 737058 468
568121 66292 470
849997 51653 525
395830 772578 509
108878 945552 525
65386 898778 525
684827 228017 509
202386 578666 470
801030 4059 509
49838 63585 340
280344 318869 389
603672 211660 470
380661 859022 525
21471 774410 509
692068 73348 509
470989 56273 449
180607 782663 509
232354 592897 470
876066 104304 525
942593 392966 525
678240 321303 509
663869 21154 509
325030 191705 443
457583 516522 470
180823 206014 360
869216 449957 525
707540 544148 509
912066 701314 525
299998 46746 443
50976 769372 509
816479 479753 509
17237 235303 443
123709 296948 443
957732 349947 525
307233 597280 470
238755 922739 525
167359 95472 383
325940 382833 441
548217 774902 509
652122 290319 509
268753 922599 525
88241 187838 383
205537 980175 525
75633 284083 443
237514 523657 470
474400 853381 525
781828 724193 468
438099 220332 449
512174 375723 470
469077 587126 470
924659 558717 525
229217 767338 509
416442 31978 449
679348 738619 504
28290 159934 383
611801 849756 525
600387 355530 470
340938 510318 449
428017 64113 449
745899 289031 509
458751 509673 444
771047 596293 509
470254 521126 470
94130 692745 509
552803 294380 470
145932 230345 386
607144 747532 509
126119 999247 525
959762 87110 525
280597 781123 509
125021 829119 509
228611 290715 443
975082 356907 525
147783 824722 509
655029 40632 509
406494 376425 436
976397 954832 458
75864 923639 525
322739 476963 449
556035 321589 470
50421 642921 509
750755 141329 509
463410 748509 509
779159 596916 509
475064 170037 449
3347 826906 509
361875 29052 443
707706 214876 509
886849 878371 370
987636 127905 525
680155 801235 504
924598 950059 507
641834 747609 504
28518 716557 509
426629 208219 449
745493 824578 468
880131 598424 525
318802 611751 470
920619 91118 525
371074 912630 525
249547 662946 509
520654 44397 470
779062 200050 509
625651 377182 470
376168 980472 525
697327 120205 509
497324 854578 525
884959 869638 432
274329 553106 470
20721 942648 525
180216 216793 386
889828 963266 507
71744 160129 383
954338 5704 525
851921 110233 525
180775 885609 525
973605 542644 525
440401 355227 449
811081 260258 509
890417 414888 525
30932 643237 509
528676 66416 470
439927 690356 509
108403 604524 470
433175 795257 509
505782 731255 509
625471 460903 470
278351 865272 525
543224 658942 509
796006 993751 525
994798 601982 525
625239 502901 470
786113 188314 509
279912 430569 449
855400 114173 525
951370 383704 525
936585 480988 525
912277 242105 525
548412 733260 509
275674 53751 443
150436 937268 525
718286 242833 509
