828775 913517
146395 676764
806199 945812
739552 852368
896420 477788
251330 49084
620915 568735
853189 14720
80455 910625
902790 759587
441697 270294
581908 830153
232842 429166
828840 6948
36875 614937
682341 938528
78494 635171
512938 863280
760399 941806
67116 160616
137875 599257
328322 154409
68189 251240
595829 872995
783869 738545
33494 906051
383754 440245
861970 639280
273930 853612
942946 108095
823289 64746
841247 549184
897893 568818
133404 651197
99386 907057
267168 543111
214983 253696
39800 902291
886856 811993
151477 451445
685151 854915
832318 154723
808400 226170
718931 255517
219807 565577
253998 313812
449015 570124
950731 223199
539430 385301
568689 238245
765706 14839
752576 520518
438146 208376
89056 698455
386855 241567
494546 24286
392964 172987
343389 750031
741846 628935
627403 903926
3376 809471
321579 727901
59097 950781
74727 192042
207094 844551
322258 105415
378246 670239
157027 557047
331280 325590
416876 143960
262486 208201
32094 91867
344510 171739
169637 893459
991710 591825
79822 425110
470957 34285
928099 779724
636895 888394
848000 477303
747121 933398
557897 737702
281322 676558
345884 173289
876906 363081
245111 107874
324974 387206
483095 737574
244057 363485
405457 700559
831350 322372
81829 901356
925379 885073
517067 354600
303221 385985
314820 291914
474861 721490
620825 461790
385771 646015
316429 366441
202115 445930
756107 656969
925090 611022
215018 333478
519688 600253
375965 916680
806522 870513
493482 698060
676986 308733
426444 373621
115054 16288
390795 134049
455005 411931
160059 692782
190800 883469
707470 422138
574072 991102
821393 736667
955612 287774
346519 673295
469778 896285
199129 784240
437234 201087
32776 77116
135489 80401
779994 837070
536268 988774
430231 408287
939791 338737
630995 471943
918507 215812
97986 689085
536774 767558
231273 820385
677687 544159
813716 95936
508066 752792
127707 234449
831168 32307
375141 87171
550815 625734
65188 180307
83423 569041
850913 831297
900613 804609
586177 790514
543037 654231
670063 508713
643877 729577
897274 522206
985025 991584
148718 209384
389194 82532
190426 609872
329353 756219
7176 59311
421287 936939
591910 64604
179419 353742
411046 682656
125555 384992
180256 964106
427885 821503
77959 950236
325302 328942
240800 321475
36752 890482
493865 35388
865864 224819
707783 399066
118346 489499
26901 970873
385058 844858
768188 726644
65685 427820
309454 652337
836981 269072
422279 438433
365250 101929
745760 782075
863083 567566
520203 418043
74378 761694
754591 566509
157637 586049
781121 722761
79052 742914
35956 443012
108533 96151
897636 881488
173459 622041
415709 948057
706645 282044
755674 843970
889865 994151
111266 973809
754130 600562
827349 224127
293229 62570
623362 858848
751540 625085
262108 507814
902610 150692
520156 682134
103865 835424
622005 276374
169136 119895
737167 286122
979513 697559
837884 996905
996071 930171
115398 403300
657175 598210
855556 263027
533408 505058
197669 676476
435777 473071
110822 148230
714886 810113
734251 519023
255671 255302
695035 30620
470999 330244
742033 231365
606126 215253
62423 447564
267040 829457
346841 539367
333812 933631
586099 707234
966621 103326
888073 730153
154335 349852
457808 409472
499563 296167
917386 240988
492936 836187
328557 732583
359273 881389
147126 856506
653475 59099
832271 656036
357812 235230
733589 985463
502217 390914
548779 942764
726403 574923
913730 228449
110128 55736
355327 211285
725043 488654
214787 902033
387421 991038
367301 196788
164112 298106
639775 164624
794791 312461
728521 355965
80782 107186
42030 556776
78187 655101
67430 145613
1415 259342
